{
    "meta": {
        "limit": 3,
        "next": "/api/v1/image/?format=json&api_secret=52d63d4586ce74efe2b5e29f2073951983ca1907&title__icontains=andromeda&limit=3&offset=3&api_key=60a5c503ba23143a388de773356f372fe40f4fe4",
        "offset": 0,
        "previous": null,
        "total_count": 3568
    },
    "objects": [
        {
            "animated": false,
            "dec": "41.188",
            "description": "",
            "h": 2954,
            "id": 399902,
            "imaging_cameras": [
                "Sony A7III"
            ],
            "imaging_telescopes": [
                "Imagestar 71mm f/4.9 APO"
            ],
            "is_final": true,
            "is_solved": true,
            "license": 0,
            "link": "",
            "link_to_fits": "",
            "locations": [
                "/api/v1/location/2809996/"
            ],
            "orientation": "63.960",
            "pixscale": "3.548",
            "published": "2019-04-08T07:48:00.479204",
            "ra": "10.726",
            "radius": "2.737",
            "resource_uri": "/api/v1/image/399902/",
            "revisions": [],
            "subjects": [
                "M 31",
                " Great Nebula in Andromeda",
                " NGC 224",
                " M 32",
                " NGC 221",
                " M 110",
                " NGC 205",
                " The star νAnd",
                " The star 32And"
            ],
            "title": "M31 Andromeda",
            "updated": "2019-04-08T14:57:34.541483",
            "uploaded": "2019-04-08T07:48:00.702944",
            "url_duckduckgo": "https://www.astrobin.com/399902/0/rawthumb/duckduckgo/",
            "url_duckduckgo_small": "https://www.astrobin.com/399902/0/rawthumb/duckduckgo_small/",
            "url_gallery": "https://www.astrobin.com/399902/0/rawthumb/gallery/",
            "url_hd": "https://www.astrobin.com/399902/0/rawthumb/hd/",
            "url_real": "https://www.astrobin.com/399902/0/rawthumb/real/",
            "url_regular": "https://www.astrobin.com/399902/0/rawthumb/regular/",
            "url_thumb": "https://www.astrobin.com/399902/0/rawthumb/thumb/",
            "user": "Nik",
            "w": 4702
        },
        {
            "animated": false,
            "dec": "41.297",
            "description": "Galáxia de Andrômeda, registro feito em Itaguaí , RJ - Novembro de 2018",
            "h": 824,
            "id": 399372,
            "imaging_cameras": [
                "Canon T5 Rebel"
            ],
            "imaging_telescopes": [
                "Canon 50 f 1.8 stm Canon 50mm f1.8"
            ],
            "is_final": true,
            "is_solved": true,
            "license": 0,
            "link": "",
            "link_to_fits": "",
            "locations": [],
            "orientation": "203.612",
            "pixscale": "17.705",
            "published": "2019-04-05T03:26:56.152421",
            "ra": "10.786",
            "radius": "4.971",
            "resource_uri": "/api/v1/image/399372/",
            "revisions": [],
            "subjects": [
                "M 31",
                " Great Nebula in Andromeda",
                " NGC 224",
                " M 32",
                " NGC 221",
                " M 110",
                " NGC 205",
                " The star 39And",
                " The star νAnd",
                " The star 32And",
                "Otro"
            ],
            "title": "Andromeda Galaxy",
            "updated": "2019-04-05T15:47:09.219226",
            "uploaded": "2019-04-05T03:26:56.275477",
            "url_duckduckgo": "https://www.astrobin.com/399372/0/rawthumb/duckduckgo/",
            "url_duckduckgo_small": "https://www.astrobin.com/399372/0/rawthumb/duckduckgo_small/",
            "url_gallery": "https://www.astrobin.com/399372/0/rawthumb/gallery/",
            "url_hd": "https://www.astrobin.com/399372/0/rawthumb/hd/",
            "url_real": "https://www.astrobin.com/399372/0/rawthumb/real/",
            "url_regular": "https://www.astrobin.com/399372/0/rawthumb/regular/",
            "url_thumb": "https://www.astrobin.com/399372/0/rawthumb/thumb/",
            "user": "Jorgeoliveira",
            "w": 1846
        },
        {
            "animated": false,
            "dec": "41.211",
            "description": "",
            "h": 2360,
            "id": 398979,
            "imaging_cameras": [
                "Nikon D610 ff camera"
            ],
            "imaging_telescopes": [
                "Teleskop Service Photoline 72 mm f/6 APO"
            ],
            "is_final": true,
            "is_solved": true,
            "license": 0,
            "link": "",
            "link_to_fits": "",
            "locations": [],
            "orientation": "262.919",
            "pixscale": "2.783",
            "published": "2019-04-02T22:00:15.926002",
            "ra": "10.706",
            "radius": "1.638",
            "resource_uri": "/api/v1/image/398979/",
            "revisions": [],
            "subjects": [
                "M 31",
                " Great Nebula in Andromeda",
                " NGC 224",
                " M 32",
                " NGC 221",
                " M 110",
                " NGC 205"
            ],
            "title": "The Andromeda Galaxy",
            "updated": "2019-04-05T09:43:13.764322",
            "uploaded": "2019-04-02T21:57:41.621572",
            "url_duckduckgo": "https://www.astrobin.com/398979/0/rawthumb/duckduckgo/",
            "url_duckduckgo_small": "https://www.astrobin.com/398979/0/rawthumb/duckduckgo_small/",
            "url_gallery": "https://www.astrobin.com/398979/0/rawthumb/gallery/",
            "url_hd": "https://www.astrobin.com/398979/0/rawthumb/hd/",
            "url_real": "https://www.astrobin.com/398979/0/rawthumb/real/",
            "url_regular": "https://www.astrobin.com/398979/0/rawthumb/regular/",
            "url_thumb": "https://www.astrobin.com/398979/0/rawthumb/thumb/",
            "user": "Ken_Mitchel",
            "w": 3519
        }
    ]
}